<?xml version="1.0" encoding="UTF-8"?>
<svg width="20px" height="16px" viewBox="0 0 20 16" version="1.1" xmlns="http://www.w3.org/2000/svg" xmlns:xlink="http://www.w3.org/1999/xlink">
    <!-- Generator: Sketch 41.2 (35397) - http://www.bohemiancoding.com/sketch -->
    <title>Shape</title>
    <desc>Created with Sketch.</desc>
    <defs></defs>
    <g id="Symbols" stroke="none" stroke-width="1" fill="none" fill-rule="evenodd">
        <g id="Contact-Info" transform="translate(0.000000, -299.000000)" fill="#bc0026">
            <g id="Shape">
                <path d="M18,299 L2,299 C0.9,299 0,299.9 0,301 L0,313 C0,314.1 0.9,315 2,315 L18,315 C19.1,315 20,314.1 20,313 L20,301 C20,299.9 19.1,299 18,299 L18,299 Z M18,303 L10,308 L2,303 L2,301 L10,306 L18,301 L18,303 L18,303 Z"></path>
            </g>
        </g>
    </g>
</svg>
