<?xml version="1.0" encoding="utf-8"?>
<!-- Generator: Adobe Illustrator 19.0.1, SVG Export Plug-In . SVG Version: 6.00 Build 0)  -->
<svg version="1.1" id="Layer_1" xmlns="http://www.w3.org/2000/svg" xmlns:xlink="http://www.w3.org/1999/xlink" x="0px" y="0px"
	 viewBox="-283 375 44 44" style="enable-background:new -283 375 44 44;" xml:space="preserve">
<style type="text/css">
	.st0{fill:#FFFFFF;}
	.st1{fill:none;}
	.st2{clip-path:url(#SVGID_2_);}
</style>
<g>
	<ellipse id="path-1" class="st0" cx="-261" cy="397" rx="22" ry="22"/>
</g>
<title>instagram</title>
<desc>Created with Sketch.</desc>
<path class="st1" d="M-283,397"/>
<g>
	<g>
		<defs>
			<circle id="SVGID_1_" cx="-261" cy="397" r="22"/>
		</defs>
		<clipPath id="SVGID_2_">
			<use xlink:href="#SVGID_1_"  style="overflow:visible;"/>
		</clipPath>
		<g class="st2">

				<image style="overflow:visible;enable-background:new    ;" width="100%" height="100%" xlink:href="4FDCCB553CC31D48.png"  transform="matrix(1 0 0 1 -283 375)">
			</image>
		</g>
	</g>
</g>
<g id="_x2F__x2F_-FOOTER" transform="translate(-1494.000000, -161.000000)">
	<g id="Footer">
		<g id="Group-2" transform="translate(1332.000000, 161.000000)">
			<g id="instagram" transform="translate(162.000000, 0.000000)">
				<path id="Fill-1" class="st0" d="M-255.7,390.5c-0.7,0-1.2,0.5-1.2,1.2s0.5,1.2,1.2,1.2s1.2-0.5,1.2-1.2S-255,390.5-255.7,390.5
					 M-261,400.3c-1.8,0-3.3-1.5-3.3-3.3s1.5-3.3,3.3-3.3s3.3,1.5,3.3,3.3S-259.2,400.3-261,400.3 M-261,391.9
					c-2.8,0-5.1,2.3-5.1,5.1c0,2.8,2.3,5.1,5.1,5.1c2.8,0,5.1-2.3,5.1-5.1C-255.9,394.2-258.2,391.9-261,391.9 M-261,387
					c-2.7,0-3.1,0-4.1,0.1c-1.1,0-1.8,0.2-2.4,0.5c-0.7,0.3-1.2,0.6-1.8,1.2c-0.6,0.6-0.9,1.1-1.2,1.8c-0.2,0.6-0.4,1.4-0.5,2.4
					c0,1.1-0.1,1.4-0.1,4.1s0,3.1,0.1,4.1c0,1.1,0.2,1.8,0.5,2.4c0.3,0.7,0.6,1.2,1.2,1.8c0.6,0.6,1.1,0.9,1.8,1.2
					c0.6,0.2,1.4,0.4,2.4,0.5c1.1,0,1.4,0.1,4.1,0.1s3.1,0,4.1-0.1c1.1,0,1.8-0.2,2.4-0.5c0.7-0.3,1.2-0.6,1.8-1.2s0.9-1.1,1.2-1.8
					c0.2-0.6,0.4-1.4,0.5-2.4c0-1.1,0.1-1.4,0.1-4.1s0-3.1-0.1-4.1c0-1.1-0.2-1.8-0.5-2.4c-0.3-0.7-0.6-1.2-1.2-1.8
					c-0.6-0.6-1.1-0.9-1.8-1.2c-0.6-0.2-1.4-0.4-2.4-0.5S-258.3,387-261,387 M-261,388.8c2.7,0,3,0,4,0.1c1,0,1.5,0.2,1.9,0.3
					c0.5,0.2,0.8,0.4,1.1,0.7c0.3,0.3,0.6,0.7,0.7,1.1c0.1,0.4,0.3,0.9,0.3,1.9c0,1.1,0.1,1.4,0.1,4c0,2.7,0,3-0.1,4
					c0,1-0.2,1.5-0.3,1.9c-0.2,0.5-0.4,0.8-0.7,1.1c-0.3,0.3-0.7,0.6-1.1,0.7c-0.4,0.1-0.9,0.3-1.9,0.3c-1.1,0-1.4,0.1-4,0.1
					c-2.7,0-3,0-4-0.1c-1,0-1.5-0.2-1.9-0.3c-0.5-0.2-0.8-0.4-1.1-0.7c-0.3-0.3-0.6-0.7-0.7-1.1s-0.3-0.9-0.3-1.9
					c0-1.1-0.1-1.4-0.1-4c0-2.7,0-3,0.1-4c0-1,0.2-1.5,0.3-1.9c0.2-0.5,0.4-0.8,0.7-1.1c0.3-0.3,0.7-0.6,1.1-0.7s0.9-0.3,1.9-0.3
					C-264,388.8-263.7,388.8-261,388.8"/>
			</g>
		</g>
	</g>
</g>
</svg>
