<?xml version="1.0" encoding="UTF-8"?>
<svg width="100%" height="100%" viewBox="0 0 24 16" version="1.1" xmlns="http://www.w3.org/2000/svg" xmlns:xlink="http://www.w3.org/1999/xlink">
    <!-- Generator: Sketch 41.2 (35397) - http://www.bohemiancoding.com/sketch -->
    <title>Shape</title>
    <desc>Created with Sketch.</desc>
    <defs></defs>
    <g id="Mobile" stroke="none" stroke-width="1" fill="none" fill-rule="evenodd" opacity="0.4">
        <g id="Campus-Mobile" transform="translate(-126.000000, -294.000000)" fill="#FFFFFF">
            <g id="Group-5" transform="translate(20.000000, 290.000000)">
                <g id="Group-4" transform="translate(106.000000, 0.000000)">
                    <path d="M20,18 C21.1,18 22,17.1 22,16 L22,6 C22,4.9 21.1,4 20,4 L4,4 C2.9,4 2,4.9 2,6 L2,16 C2,17.1 2.9,18 4,18 L0,18 L0,20 L24,20 L24,18 L20,18 L20,18 Z M4,6 L20,6 L20,16 L4,16 L4,6 L4,6 Z" id="Shape"></path>
                </g>
            </g>
        </g>
    </g>
</svg>
