<?xml version="1.0" encoding="UTF-8"?>
<svg width="9px" height="13px" viewBox="0 0 9 13" version="1.1" xmlns="http://www.w3.org/2000/svg" xmlns:xlink="http://www.w3.org/1999/xlink">
    <!-- Generator: Sketch 42 (36781) - http://www.bohemiancoding.com/sketch -->
    <title>&gt;</title>
    <desc>Created with Sketch.</desc>
    <defs></defs>
    <g id="Symbols" stroke="none" stroke-width="1" fill="none" fill-rule="evenodd">
        <g id="Read-More-Link" transform="translate(-104.000000, -5.000000)" fill="#F5283C">
            <g id="Read-More">
                <path d="M112.054,11.988 C111.994,12.1080006 111.964,12.1919998 111.964,12.24 L111.874,12.402 C111.874,12.4140001 111.868,12.42 111.856,12.42 L106.672,17.676 C106.455999,17.8920011 106.192002,18 105.88,18 C105.567998,18 105.292001,17.8920011 105.052,17.676 C104.823999,17.4479989 104.71,17.1810015 104.71,16.875 C104.71,16.5689985 104.823999,16.2960012 105.052,16.056 L109.318,11.754 L105.052,7.452 C104.823999,7.22399886 104.71,6.95400156 104.71,6.642 C104.71,6.32999844 104.820999,6.06300111 105.043,5.841 C105.265001,5.61899889 105.534998,5.508 105.853,5.508 C106.171002,5.508 106.443999,5.61599892 106.672,5.832 L111.856,11.088 C111.88,11.1360002 111.901,11.1749998 111.919,11.205 C111.937,11.2350001 111.949,11.2589999 111.955,11.277 C111.961,11.2950001 111.967,11.304 111.973,11.304 C111.979,11.304 111.982,11.3099999 111.982,11.322 L112.054,11.538 L112.054,11.664 C112.066,11.7120002 112.072,11.7419999 112.072,11.754 L112.054,11.844 L112.054,11.988 Z" id="&gt;"></path>
            </g>
        </g>
    </g>
</svg>