<?xml version="1.0" encoding="UTF-8"?>
<svg width="18px" height="18px" viewBox="0 0 18 18" version="1.1" xmlns="http://www.w3.org/2000/svg" xmlns:xlink="http://www.w3.org/1999/xlink">
    <!-- Generator: Sketch 41.2 (35397) - http://www.bohemiancoding.com/sketch -->
    <title>Search Icon</title>
    <desc>Created with Sketch.</desc>
    <defs></defs>
    <g id="Page-1" stroke="none" stroke-width="1" fill="none" fill-rule="evenodd">
        <g id="Affiliated-Institution-Landing" transform="translate(-1567.000000, -51.000000)" fill="#FFFFFF">
            <g id="//-GLOBAL-NAV-V3">
                <g id="Main-NAV">
                    <g id="Menu-Item" transform="translate(1445.000000, 33.000000)">
                        <path d="M134.5,29 L133.7,29 L133.4,28.7 C134.4,27.6 135,26.1 135,24.5 C135,20.9 132.1,18 128.5,18 C124.9,18 122,20.9 122,24.5 C122,28.1 124.9,31 128.5,31 C130.1,31 131.6,30.4 132.7,29.4 L133,29.7 L133,30.5 L138,35.5 L139.5,34 L134.5,29 L134.5,29 Z M128.5,29 C126,29 124,27 124,24.5 C124,22 126,20 128.5,20 C131,20 133,22 133,24.5 C133,27 131,29 128.5,29 L128.5,29 Z" id="Search-Icon"></path>
                    </g>
                </g>
            </g>
        </g>
    </g>
</svg>