<?xml version="1.0" encoding="UTF-8"?>
<svg width="12px" height="21px" viewBox="0 0 12 21" version="1.1" xmlns="http://www.w3.org/2000/svg" xmlns:xlink="http://www.w3.org/1999/xlink">
    <!-- Generator: Sketch 42 (36781) - http://www.bohemiancoding.com/sketch -->
    <title>&lt;</title>
    <desc>Created with Sketch.</desc>
    <defs></defs>
    <g id="Page-1" stroke="none" stroke-width="1" fill="none" fill-rule="evenodd">
        <g id="Events-Landing" transform="translate(-1609.000000, -544.000000)" fill="#164d7f">
            <g id="//-RIGHT-NAV-W/-CALENDAR" transform="translate(1332.000000, 504.000000)">
                <g id="Calendar">
                    <g id="Prev" transform="translate(276.000000, 33.000000)">
                        <path d="M11.58,27.73 L2.07,18.16 C1.9099992,17.9999992 1.8200001,17.8600006 1.8,17.74 C1.7799999,17.5999993 1.7999997,17.4550007 1.86,17.305 C1.9200003,17.1549992 1.9999995,17.0300005 2.1,16.93 L11.58,7.33 C11.7400008,7.1699992 11.9449988,7.09 12.195,7.09 C12.4450013,7.09 12.6499992,7.1699992 12.81,7.33 C12.9500007,7.5100009 13.02,7.7199988 13.02,7.96 C13.02,8.2000012 12.9500007,8.4099991 12.81,8.59 L3.87,17.56 L12.81,26.56 C12.9500007,26.7200008 13.02,26.9149988 13.02,27.145 C13.02,27.3750011 12.9500007,27.5749992 12.81,27.745 C12.6699993,27.9150008 12.4750013,28 12.225,28 C11.9749988,28 11.7600009,27.9100009 11.58,27.73 Z" id="&lt;"></path>
                    </g>
                </g>
            </g>
        </g>
    </g>
</svg>