<?xml version="1.0" encoding="UTF-8"?>
<svg width="43px" height="45px" viewBox="0 0 43 45" version="1.1" xmlns="http://www.w3.org/2000/svg" xmlns:xlink="http://www.w3.org/1999/xlink">
    <!-- Generator: Sketch 41.2 (35397) - http://www.bohemiancoding.com/sketch -->
    <title>Fill 1</title>
    <desc>Created with Sketch.</desc>
    <defs></defs>
    <g id="Mobile" stroke="none" stroke-width="1" fill="none" fill-rule="evenodd">
        <g id="Main-Menu-Academics-Mobile" transform="translate(-60.000000, -864.000000)" fill="#344D83">
            <g id="Admissions-&amp;-Aid-Expanded" transform="translate(0.000000, 162.000000)">
                <g id="Main-Nav">
                    <path d="M86.6545462,723.850626 C86.6545462,721.508761 85.4648434,720.337944 83.0842784,720.337944 L78.6115894,720.337944 L78.6115894,727.472833 L81.8660561,727.472833 C83.5322429,727.472833 84.7293655,727.217966 85.4578874,726.708925 C86.2555054,726.156444 86.6545462,725.203523 86.6545462,723.850626 L86.6545462,723.850626 Z M90.7499897,729.589176 L93.2703697,729.589176 L93.2703697,718.330896 L90.7499897,718.330896 L90.7499897,729.589176 Z M98.0046032,724.758026 C98.0046032,734.169619 90.6600259,741.799222 81.6001062,741.799222 C74.9230702,741.799222 69.1820759,737.653186 66.6215832,731.705982 L70.9646592,727.177529 L76.0784569,727.177529 L76.0912095,729.589176 L82.4127954,729.589176 C84.1350937,729.589176 85.4293679,729.400626 86.2979368,729.022369 C87.2497454,728.60044 87.9919475,727.909319 88.5240792,726.949004 C89.0140114,726.032361 89.2593253,725.014511 89.2593253,723.893835 C89.2593253,722.134491 88.7269617,720.767036 87.6629301,719.792395 C86.5988984,718.817985 85.0660344,718.330896 83.0629468,718.330896 L76.0912095,718.330896 L65.732842,729.093306 C65.3831886,727.708984 65.1956092,726.256496 65.1956092,724.758026 C65.1956092,715.346434 72.5401866,707.71683 81.6001062,707.71683 C90.6600259,707.71683 98.0046032,715.346434 98.0046032,724.758026 L98.0046032,724.758026 Z M98.8961267,724.612223 C98.8961267,714.722784 91.1796369,706.706836 81.6610869,706.706836 C72.1418413,706.706836 64.4255833,714.722784 64.4255833,724.612223 C64.4255833,734.501431 72.1418413,742.517841 81.6610869,742.517841 C91.1796369,742.517841 98.8961267,734.501431 98.8961267,724.612223 L98.8961267,724.612223 Z M101.215711,723.230673 C101.232869,723.648673 101.251186,724.060204 101.251186,724.474738 C101.25165,724.890196 101.23055,725.301496 101.212697,725.719958 C101.202031,725.988689 101.329557,726.202426 101.564437,726.244249 L102.684812,726.449668 C102.919924,726.493109 103.018699,726.697141 102.993425,726.962868 C102.950762,727.433089 102.875406,727.905391 102.79518,728.376536 C102.715186,728.847682 102.630092,729.316979 102.516478,729.774492 C102.451555,730.03398 102.292727,730.190875 102.057152,730.147203 L100.937472,729.942016 C100.701433,729.899037 100.511303,730.053621 100.43386,730.310105 C100.312362,730.709389 100.193647,731.101972 100.057774,731.492476 C99.9212049,731.882055 99.7656231,732.260774 99.6118961,732.648966 C99.5124257,732.897594 99.5625087,733.142988 99.7693329,733.267302 L100.754994,733.857909 C100.96205,733.981761 100.986396,734.208669 100.875564,734.450596 C100.680797,734.876684 100.454032,735.292374 100.224253,735.70737 C99.9937789,736.121442 99.7588989,736.533435 99.5022236,736.922089 C99.3561483,737.142759 99.1544251,737.233106 98.9471372,737.109023 L97.9630992,736.518415 C97.7558113,736.394563 97.5264962,736.47174 97.3679,736.684784 C97.122818,737.017751 96.8814458,737.344711 96.6252343,737.66289 C96.3690227,737.980377 96.099131,738.282381 95.8259933,738.591087 C95.6504709,738.790036 95.617546,739.037277 95.7715048,739.227446 L96.501418,740.133228 C96.6560724,740.323859 96.6045982,740.545221 96.4209606,740.733079 C96.0970442,741.063967 95.7473908,741.375214 95.3954187,741.682533 C95.0420554,741.989852 94.6866053,742.293937 94.3158521,742.567058 C94.1062455,742.723259 93.8880599,742.737123 93.7334055,742.546031 L93.0027967,741.640941 C92.8493016,741.451004 92.6081613,741.442223 92.3897438,741.58664 C92.0484376,741.8117 91.7150147,742.033755 91.3690711,742.241715 C91.0235913,742.449445 90.6706917,742.635685 90.3122273,742.829088 C90.0826803,742.954095 89.9695299,743.175457 90.0513784,743.408604 L90.4395216,744.518881 C90.5220658,744.753183 90.4005682,744.942889 90.1663838,745.054033 C89.753431,745.249978 89.321929,745.418194 88.8899632,745.581328 C88.4573019,745.744923 88.0232493,745.903897 87.5852551,746.029829 C87.3369269,746.10146 87.1259291,746.036068 87.0440806,745.801766 L86.6557055,744.692644 C86.5740888,744.459266 86.3503384,744.364991 86.0964455,744.423682 C85.7032013,744.51426 85.3157538,744.604607 84.9227414,744.677162 C84.5294972,744.748793 84.1353256,744.798704 83.735821,744.853466 C83.478682,744.889282 83.2994498,745.056805 83.2994498,745.30474 L83.2982905,746.486417 C83.2982905,746.735046 83.1225363,746.871144 82.865861,746.892633 C82.4132592,746.929142 81.952542,746.933994 81.4915931,746.933994 C81.0315716,746.933994 80.5708544,746.929142 80.1184845,746.892633 C79.8613455,746.871144 79.6855913,746.735046 79.6855913,746.486417 L79.6855913,745.30474 C79.6855913,745.056805 79.506591,744.889282 79.2487563,744.853466 C78.8492518,744.798704 78.4560076,744.746251 78.0629952,744.673696 C77.6695192,744.602065 77.2832309,744.509408 76.8892912,744.419291 C76.635862,744.360369 76.4123434,744.455107 76.3307267,744.688253 L75.941888,745.797606 C75.8600394,746.031446 75.6495053,746.095914 75.4007135,746.024976 C74.9629511,745.898814 74.5288985,745.740071 74.096469,745.576475 C73.6642714,745.413573 73.2325375,745.24397 72.8200484,745.048487 C72.5847048,744.938499 72.4641346,744.747176 72.5455195,744.51426 L72.9350538,743.404214 C73.0169024,743.170836 72.9035201,742.949243 72.6742049,742.824929 C72.3155087,742.630832 71.9642322,742.441588 71.6180567,742.23409 C71.2716494,742.027054 70.9393859,741.802457 70.5994708,741.57786 C70.3801259,741.432056 70.1394493,741.441761 69.9861861,741.632854 L69.2546498,742.536326 C69.1011548,742.726725 68.8818098,742.713554 68.6722033,742.558508 C68.3019138,742.28377 67.9462318,741.980379 67.593796,741.673059 C67.2413601,741.36574 66.8919385,741.0538 66.5670947,740.723836 C66.3834571,740.535054 66.3329104,740.313923 66.4871011,740.123293 L67.2177098,739.219127 C67.3707412,739.02711 67.33828,738.779869 67.1625258,738.581613 C66.8896199,738.271983 66.621815,737.969516 66.3649079,737.651337 C66.1077688,737.333851 65.8696428,737.00458 65.624097,736.672075 C65.4661965,736.459262 65.2364176,736.381393 65.0288978,736.505245 L64.0450917,737.096545 C63.8380357,737.219704 63.6360806,737.129126 63.4900053,736.909381 C63.2335618,736.521188 62.9982182,736.108271 62.7686711,735.695123 C62.5379648,735.280589 62.3118957,734.862589 62.116433,734.437425 C62.005833,734.195498 62.0311064,733.96859 62.2381624,733.844507 L63.222896,733.254131 C63.4297202,733.129817 63.480035,732.884424 63.3812603,732.636258 C63.2268377,732.24922 63.0747338,731.868884 62.9374693,731.478843 C62.8004367,731.088801 62.6847357,730.695294 62.5630063,730.295317 C62.4855631,730.037908 62.2956651,729.884942 62.0596259,729.927921 L60.9401784,730.132415 C60.7048347,730.176087 60.545543,730.019192 60.4803887,729.759242 C60.3667745,729.302191 60.2823754,728.832663 60.2016862,728.361748 C60.1221562,727.891064 60.0472636,727.418532 60.0036729,726.949004 C59.9790951,726.682353 60.0774062,726.47832 60.312518,726.435111 L61.4319655,726.230616 C61.6677729,726.187176 61.7957627,725.974594 61.7844013,725.705632 C61.7665476,725.286476 61.7489259,724.874484 61.7489259,724.460412 C61.7482303,724.045415 61.7684026,723.633423 61.7862562,723.214036 C61.7978495,722.945767 61.6698597,722.732723 61.4347479,722.689745 L60.3150685,722.484788 C60.0790292,722.44181 59.9811819,722.238009 60.0052959,721.970895 C60.0491185,721.501136 60.124243,721.029066 60.2047004,720.55792 C60.2844622,720.087236 60.3690932,719.616553 60.4824755,719.159733 C60.5476298,718.900707 60.7069215,718.743813 60.9427289,718.787022 L62.0626401,718.992441 C62.2977519,719.03565 62.4878818,718.881066 62.5653249,718.624351 C62.6872863,718.225067 62.8060015,717.831098 62.9423385,717.44175 C63.0786755,717.051708 63.2335618,716.672296 63.3882162,716.28549 C63.486991,716.036631 63.4364443,715.7917 63.229852,715.667386 L62.2451184,715.076547 C62.0382942,714.952233 62.012789,714.725556 62.1238527,714.484091 C62.3193154,714.058697 62.5451526,713.641621 62.7753952,713.227318 C63.0058697,712.813014 63.2405178,712.40056 63.4971931,712.012136 C63.6435003,711.791236 63.8449916,711.70112 64.0520477,711.825203 L65.0367812,712.41581 C65.2438373,712.540586 65.4736162,712.462486 65.6308211,712.249211 C65.8770625,711.916474 66.117739,711.589283 66.3739506,711.271797 C66.6301622,710.953618 66.9005176,710.652768 67.1731916,710.343601 C67.3487139,710.144883 67.3825663,709.896717 67.2286075,709.706087 L66.4977669,708.800997 C66.3438081,708.611291 66.3943548,708.389235 66.5784561,708.201378 C66.9026044,707.871183 67.2524897,707.559474 67.6046937,707.251923 C67.9578251,706.944835 68.3132752,706.64052 68.6826372,706.366936 C68.8931712,706.211197 69.1120524,706.197564 69.2655475,706.387732 L69.9968519,707.292822 C70.1498832,707.483452 70.3917191,707.492464 70.6101366,707.347585 C70.9505154,707.122295 71.2841702,706.900932 71.6298819,706.69251 C71.9762892,706.485243 72.3289569,706.29831 72.6871894,706.104906 C72.917432,705.98013 73.0303506,705.759461 72.948502,705.525621 L72.5596633,704.415344 C72.4778147,704.182197 72.5983848,703.991567 72.8334966,703.880655 C73.2464494,703.684479 73.6777196,703.516262 74.1099172,703.352898 C74.5425786,703.189071 74.9775586,703.030328 75.4141617,702.904396 C75.6631854,702.832997 75.8739513,702.897927 75.955568,703.131766 L76.3441749,704.240888 C76.4257917,704.475421 76.6493102,704.569004 76.9029712,704.511006 C77.2964473,704.419734 77.6838948,704.330542 78.0762116,704.258681 C78.4696876,704.185201 78.8633956,704.135753 79.2635957,704.080759 C79.5205029,704.045868 79.7001988,703.878344 79.7001988,703.629716 L79.7001988,702.44827 C79.7001988,702.199873 79.8754893,702.064006 80.1333239,702.042747 C80.5859257,702.005315 81.0459472,702 81.5066643,702 C81.9666859,702 82.4276348,702.005315 82.8802366,702.042747 C83.1369119,702.064006 83.3133617,702.199873 83.3133617,702.44827 L83.3133617,703.629716 C83.3133617,703.878344 83.4930576,704.045868 83.7495011,704.080759 C84.1499331,704.135753 84.5450322,704.183584 84.9385083,704.255677 C85.330825,704.328232 85.7192,704.415344 86.1131398,704.506153 C86.3663372,704.564844 86.5896238,704.4708 86.6712405,704.23696 L87.0607749,703.127607 C87.1421597,702.893767 87.3529256,702.828838 87.6012538,702.900006 C88.0387843,703.026169 88.4735325,703.18445 88.9064257,703.348507 C89.3383915,703.512334 89.7701254,703.68032 90.1828463,703.876496 C90.4184218,703.98787 90.5378326,704.178269 90.4562159,704.411185 L90.0678409,705.521462 C89.9859923,705.755071 90.0991428,705.975971 90.3284579,706.100747 C90.6866904,706.29415 91.0375032,706.483625 91.3841424,706.691355 C91.7305497,706.897929 92.0623495,707.122295 92.4031921,707.347585 C92.6216095,707.492464 92.862518,707.483452 93.0167087,707.292822 L93.7475493,706.388657 C93.9010444,706.198257 94.1201574,706.21189 94.329764,706.36763 C94.6998216,706.64052 95.0557355,706.944835 95.408635,707.252616 C95.7610709,707.559936 96.1109562,707.871183 96.4341769,708.202533 C96.6185102,708.389929 96.6695206,708.611291 96.5155618,708.801921 L95.784953,709.70678 C95.6307623,709.89741 95.6643829,710.144883 95.8392096,710.344063 C96.1116518,710.652768 96.3808478,710.95639 96.637755,711.273877 C96.8946622,711.590901 97.1327882,711.920171 97.378334,712.253139 C97.5364664,712.466876 97.7662453,712.543821 97.9730695,712.419276 L98.9575712,711.829593 C99.1650909,711.704817 99.3656548,711.795395 99.5124257,712.015833 C99.769101,712.404719 100.003749,712.816711 100.233992,713.230552 C100.464466,713.645087 100.68984,714.062163 100.885534,714.487788 C100.99683,714.729716 100.971093,714.956161 100.764269,715.080475 L99.7797669,715.671314 C99.5722471,715.794935 99.5217004,716.039866 99.6211707,716.288956 C99.776057,716.676456 99.9258422,717.057254 100.061484,717.447526 C100.197821,717.837799 100.314913,718.240549 100.43641,718.640063 C100.515013,718.89701 100.704447,719.051132 100.939559,719.008153 L102.059238,718.802735 C102.295973,718.759525 102.454569,718.916189 102.520187,719.17637 C102.632642,719.632728 102.717737,720.102487 102.797499,720.573864 C102.877724,721.045009 102.952617,721.516848 102.996439,721.98707 C103.020553,722.253259 102.922706,722.45706 102.686899,722.50027 L101.567915,722.705688 C101.332108,722.748898 101.203654,722.961249 101.215711,723.230673 L101.215711,723.230673 Z M76.0784569,725.184114 L72.8562195,725.188273 L76.0784569,721.849123 L76.0784569,725.184114 Z" id="Fill-1"></path>
                </g>
            </g>
        </g>
    </g>
</svg>
