<?xml version="1.0" encoding="UTF-8"?>
<svg width="628px" height="179px" viewBox="0 0 628 179" version="1.1" xmlns="http://www.w3.org/2000/svg" xmlns:xlink="http://www.w3.org/1999/xlink">
    <!-- Generator: Sketch 48.2 (47327) - http://www.bohemiancoding.com/sketch -->
    <title>Business Logo</title>
    <desc>Created with Sketch.</desc>
    <defs></defs>
    <g id="Business-Lander-2" stroke="none" stroke-width="1" fill="none" fill-rule="evenodd" transform="translate(-269.000000, -344.000000)">
        <g id="//-HERO" transform="translate(0.000000, 114.000000)">
            <g id="Business-Logo" transform="translate(262.000000, 216.000000)">
                <path d="M7.056,190 L7.056,87.04 L56.736,87.04 C67.536,87.04 75.168,89.632 80.784,94.096 C86.688,98.992 89.712,105.616 89.712,113.824 C89.712,124.192 84.528,130.528 75.312,133.984 L75.312,134.416 C86.688,137.872 93.744,147.376 93.744,159.616 C93.744,169.984 90,177.472 83.232,182.656 C77.04,187.552 68.544,190 57.888,190 L7.056,190 Z M32.256,169.552 L55.008,169.552 C63.504,169.552 68.544,164.8 68.544,157.456 C68.544,149.248 62.64,145.072 54.72,145.072 L32.256,145.072 L32.256,169.552 Z M32.256,127.792 L52.992,127.792 C60.336,127.792 65.376,124.192 65.376,117.424 C65.376,110.944 60.624,107.2 53.136,107.2 L32.256,107.2 L32.256,127.792 Z M127.55479,192.16 C110.41879,192.16 101.63479,181.216 101.63479,164.656 L101.63479,116.272 L124.96279,116.272 L124.96279,159.76 C124.96279,167.824 128.56279,172.288 136.05079,172.288 C144.11479,172.288 149.01079,166.24 149.01079,157.456 L149.01079,116.272 L172.48279,116.272 L172.48279,190 L150.01879,190 L150.01879,180.928 L149.58679,180.928 C144.25879,188.272 137.92279,192.16 127.55479,192.16 Z M215.07758,192.304 C193.33358,192.304 179.94158,182.368 179.22158,166.096 L201.39758,166.096 C202.40558,173.44 207.01358,177.04 214.93358,177.04 C221.98958,177.04 226.45358,174.448 226.45358,169.696 C226.45358,162.928 217.38158,162.496 207.73358,160.624 C194.91758,158.32 181.23758,155.152 181.23758,137.728 C181.23758,122.176 195.63758,114.112 213.06158,114.112 C233.94158,114.112 245.17358,123.184 246.32558,137.728 L224.72558,137.728 C223.71758,130.96 219.39758,129.088 212.91758,129.088 C207.15758,129.088 202.69358,131.248 202.69358,135.856 C202.69358,141.04 211.04558,141.904 220.40558,143.488 C233.36558,145.792 248.62958,148.96 248.62958,167.824 C248.62958,183.952 234.37358,192.304 215.07758,192.304 Z M256.23237,190 L256.23237,116.272 L279.70437,116.272 L279.70437,190 L256.23237,190 Z M256.23237,106.048 L256.23237,87.04 L279.70437,87.04 L279.70437,106.048 L256.23237,106.048 Z M290.90716,190 L290.90716,116.272 L313.51516,116.272 L313.51516,126.352 L313.94716,126.352 C319.56316,118.288 326.33116,114.112 336.69916,114.112 C352.82716,114.112 362.33116,125.632 362.33116,142.048 L362.33116,190 L338.85916,190 L338.85916,146.8 C338.85916,138.88 334.97116,133.696 327.33916,133.696 C319.41916,133.696 314.37916,140.032 314.37916,149.248 L314.37916,190 L290.90716,190 Z M408.95795,192.16 C384.62195,192.16 369.64595,175.456 369.64595,152.992 C369.64595,130.96 385.05395,114.112 407.51795,114.112 C418.02995,114.112 426.38195,117.568 432.71795,123.328 C441.50195,131.392 445.82195,144.208 445.67795,159.184 L392.68595,159.184 C394.26995,169.12 399.45395,175.312 409.24595,175.312 C415.43795,175.312 419.32595,172.576 421.48595,167.968 L444.38195,167.968 C442.79795,174.736 438.47795,180.928 431.99795,185.392 C425.80595,189.856 418.31795,192.16 408.95795,192.16 Z M392.82995,145.216 L421.91795,145.216 C420.90995,136.432 415.58195,130.816 407.94995,130.816 C398.87795,130.816 394.41395,136.432 392.82995,145.216 Z M484.96074,192.304 C463.21674,192.304 449.82474,182.368 449.10474,166.096 L471.28074,166.096 C472.28874,173.44 476.89674,177.04 484.81674,177.04 C491.87274,177.04 496.33674,174.448 496.33674,169.696 C496.33674,162.928 487.26474,162.496 477.61674,160.624 C464.80074,158.32 451.12074,155.152 451.12074,137.728 C451.12074,122.176 465.52074,114.112 482.94474,114.112 C503.82474,114.112 515.05674,123.184 516.20874,137.728 L494.60874,137.728 C493.60074,130.96 489.28074,129.088 482.80074,129.088 C477.04074,129.088 472.57674,131.248 472.57674,135.856 C472.57674,141.04 480.92874,141.904 490.28874,143.488 C503.24874,145.792 518.51274,148.96 518.51274,167.824 C518.51274,183.952 504.25674,192.304 484.96074,192.304 Z M558.22753,192.304 C536.48353,192.304 523.09153,182.368 522.37153,166.096 L544.54753,166.096 C545.55553,173.44 550.16353,177.04 558.08353,177.04 C565.13953,177.04 569.60353,174.448 569.60353,169.696 C569.60353,162.928 560.53153,162.496 550.88353,160.624 C538.06753,158.32 524.38753,155.152 524.38753,137.728 C524.38753,122.176 538.78753,114.112 556.21153,114.112 C577.09153,114.112 588.32353,123.184 589.47553,137.728 L567.87553,137.728 C566.86753,130.96 562.54753,129.088 556.06753,129.088 C550.30753,129.088 545.84353,131.248 545.84353,135.856 C545.84353,141.04 554.19553,141.904 563.55553,143.488 C576.51553,145.792 591.77953,148.96 591.77953,167.824 C591.77953,183.952 577.52353,192.304 558.22753,192.304 Z" id="Business" fill="#EF0030"></path>
                <path d="M30.1103,61.9991835 C16.6063,61.9991835 7.5183,51.8871835 7.5183,38.2551835 C7.5183,24.6231835 16.4143,14.3191835 30.0463,14.3191835 C35.4223,14.3191835 39.8383,15.8551835 43.1023,18.3511835 C47.1343,21.3591835 49.3743,25.8391835 49.9503,30.9591835 L38.6223,30.9591835 C38.0463,26.8631835 34.8463,23.7271835 29.9823,23.7271835 C22.5583,23.7271835 19.0383,29.8711835 19.0383,38.2551835 C19.0383,46.6391835 23.2623,52.7191835 30.0463,52.7191835 C35.1663,52.7191835 38.4303,49.5191835 38.9423,45.1031835 L50.2703,45.1031835 C49.9503,49.7111835 47.9023,53.8071835 44.7663,56.8151835 C41.1823,60.2071835 36.5743,61.9991835 30.1103,61.9991835 Z M70.9423,54.5751835 C75.5503,54.5751835 77.9183,50.6071835 77.9183,44.6551835 C77.9183,38.7031835 75.5503,34.6711835 70.9423,34.6711835 C66.3343,34.6711835 64.0303,38.7031835 64.0303,44.6551835 C64.0303,50.6071835 66.3343,54.5751835 70.9423,54.5751835 Z M71.0063,61.9991835 C60.4463,61.9991835 53.4703,54.5751835 53.4703,44.6551835 C53.4703,34.7351835 60.4463,27.3111835 71.0063,27.3111835 C81.5663,27.3111835 88.4783,34.7351835 88.4783,44.6551835 C88.4783,54.5751835 81.5663,61.9991835 71.0063,61.9991835 Z M92.7023,60.9751835 L92.7023,15.2151835 L103.2623,15.2151835 L103.2623,60.9751835 L92.7023,60.9751835 Z M109.0223,60.9751835 L109.0223,15.2151835 L119.5823,15.2151835 L119.5823,60.9751835 L109.0223,60.9751835 Z M141.2783,61.9351835 C130.4623,61.9351835 123.8063,54.5111835 123.8063,44.5271835 C123.8063,34.7351835 130.6543,27.2471835 140.6383,27.2471835 C145.3103,27.2471835 149.0223,28.7831835 151.8383,31.3431835 C155.7423,34.9271835 157.6623,40.6231835 157.5983,47.2791835 L134.0463,47.2791835 C134.7503,51.6951835 137.0543,54.4471835 141.4063,54.4471835 C144.1583,54.4471835 145.8863,53.2311835 146.8463,51.1831835 L157.0223,51.1831835 C156.3183,54.1911835 154.3983,56.9431835 151.5183,58.9271835 C148.7663,60.9111835 145.4383,61.9351835 141.2783,61.9351835 Z M134.1103,41.0711835 L147.0383,41.0711835 C146.5903,37.1671835 144.2223,34.6711835 140.8303,34.6711835 C136.7983,34.6711835 134.8143,37.1671835 134.1103,41.0711835 Z M176.9903,72.3031835 C167.9663,72.3031835 162.0143,68.6551835 160.9903,61.7431835 L171.1023,61.7431835 C171.6783,63.4711835 173.3423,64.9431835 176.8623,64.9431835 C181.2783,64.9431835 183.1343,62.7031835 183.1343,58.6711835 L183.1343,55.4071835 L182.8783,55.4071835 C180.8943,57.6471835 178.5263,59.1831835 174.4943,59.1831835 C167.1343,59.1831835 160.2863,53.6791835 160.2863,43.6311835 C160.2863,34.0951835 165.8543,27.2471835 174.0463,27.2471835 C178.3983,27.2471835 181.2783,28.9751835 183.2623,31.7271835 L183.3903,31.7271835 L183.3903,28.2071835 L193.3743,28.2071835 L193.3743,57.7751835 C193.3743,62.7031835 191.6463,66.2871835 189.0223,68.6551835 C186.1423,71.2151835 181.8543,72.3031835 176.9903,72.3031835 Z M176.9263,51.4391835 C181.4703,51.4391835 183.5823,47.8551835 183.5823,43.2471835 C183.5823,38.8311835 181.2783,35.1191835 176.9263,35.1191835 C173.0223,35.1191835 170.4623,38.2551835 170.4623,43.3111835 C170.4623,48.2391835 173.0223,51.4391835 176.9263,51.4391835 Z M215.0063,61.9351835 C204.1903,61.9351835 197.5343,54.5111835 197.5343,44.5271835 C197.5343,34.7351835 204.3823,27.2471835 214.3663,27.2471835 C219.0383,27.2471835 222.7503,28.7831835 225.5663,31.3431835 C229.4703,34.9271835 231.3903,40.6231835 231.3263,47.2791835 L207.7743,47.2791835 C208.4783,51.6951835 210.7823,54.4471835 215.1343,54.4471835 C217.8863,54.4471835 219.6143,53.2311835 220.5743,51.1831835 L230.7503,51.1831835 C230.0463,54.1911835 228.1263,56.9431835 225.2463,58.9271835 C222.4943,60.9111835 219.1663,61.9351835 215.0063,61.9351835 Z M207.8383,41.0711835 L220.7663,41.0711835 C220.3183,37.1671835 217.9503,34.6711835 214.5583,34.6711835 C210.5263,34.6711835 208.5423,37.1671835 207.8383,41.0711835 Z M262.0463,54.5751835 C266.6543,54.5751835 269.0223,50.6071835 269.0223,44.6551835 C269.0223,38.7031835 266.6543,34.6711835 262.0463,34.6711835 C257.4383,34.6711835 255.1343,38.7031835 255.1343,44.6551835 C255.1343,50.6071835 257.4383,54.5751835 262.0463,54.5751835 Z M262.1103,61.9991835 C251.5503,61.9991835 244.5743,54.5751835 244.5743,44.6551835 C244.5743,34.7351835 251.5503,27.3111835 262.1103,27.3111835 C272.6703,27.3111835 279.5823,34.7351835 279.5823,44.6551835 C279.5823,54.5751835 272.6703,61.9991835 262.1103,61.9991835 Z M285.5343,60.9751835 L285.5343,34.8631835 L281.3103,34.8631835 L281.3103,28.2071835 L285.5343,28.2071835 L285.5343,25.8391835 C285.5343,22.5751835 286.4303,20.0151835 288.2223,18.2231835 C291.0383,15.4711835 296.4783,14.8311835 302.1103,15.4071835 L302.1103,22.7671835 C298.2063,22.5751835 295.9663,23.0231835 295.9663,26.6071835 L295.9663,28.2071835 L302.1103,28.2071835 L302.1103,34.8631835 L295.9663,34.8631835 L295.9663,60.9751835 L285.5343,60.9751835 Z" id="College-of" fill="#FFFFFF"></path>
                <path d="M614.5,102.054 C607.158,102.054 601.281,108.443 602.137,115.952 C602.772,121.542 607.222,126.087 612.797,126.832 C617.612,127.476 621.981,125.341 624.552,121.814 C624.995,121.206 625.813,121.013 626.464,121.389 L627.181,121.801 C624.65,126.185 619.926,129.143 614.5,129.143 C606.15,129.143 599.434,122.156 599.878,113.708 C600.276,106.14 606.61,100.019 614.188,99.861 C619.744,99.745 624.603,102.732 627.181,107.2 L626.475,107.606 C625.815,107.986 624.991,107.787 624.542,107.173 C622.277,104.075 618.624,102.054 614.5,102.054 Z M613.036,109.375 L616.33,109.375 C617.34,109.375 618.161,110.197 618.161,111.205 C618.161,112.215 617.34,113.036 616.33,113.036 L613.036,113.036 L613.036,109.375 Z M616.696,115.233 C617.907,115.233 618.893,116.218 618.893,117.429 C618.893,118.64 617.907,119.625 616.696,119.625 L613.036,119.625 L613.036,115.233 L616.696,115.233 Z M610.839,119.625 C610.03,119.625 609.375,120.281 609.375,121.089 L609.375,121.822 L616.696,121.822 C619.122,121.822 621.089,119.855 621.089,117.429 C621.089,115.984 620.389,114.706 619.312,113.906 C619.959,113.191 620.357,112.245 620.357,111.205 C620.357,108.982 618.555,107.179 616.33,107.179 L609.375,107.179 L609.375,107.911 C609.375,108.72 610.03,109.375 610.839,109.375 L610.839,119.625 Z M614.5,132.804 C604.407,132.804 596.196,124.593 596.196,114.5 C596.196,104.408 604.407,96.197 614.5,96.197 C624.593,96.197 632.804,104.408 632.804,114.5 C632.804,124.593 624.593,132.804 614.5,132.804 Z M614.5,94 C603.178,94 594,103.178 594,114.5 C594,125.823 603.178,135 614.5,135 C625.822,135 635,125.823 635,114.5 C635,103.178 625.822,94 614.5,94 Z" id="Fill-2" fill="#EF0030"></path>
            </g>
        </g>
    </g>
</svg>