<?xml version="1.0" encoding="UTF-8"?>
<svg width="20px" height="20px" viewBox="0 0 20 20" version="1.1" xmlns="http://www.w3.org/2000/svg" xmlns:xlink="http://www.w3.org/1999/xlink">
    <!-- Generator: Sketch 41.2 (35397) - http://www.bohemiancoding.com/sketch -->
    <title>Shape</title>
    <desc>Created with Sketch.</desc>
    <defs></defs>
    <g id="Symbols" stroke="none" stroke-width="1" fill="none" fill-rule="evenodd">
        <g id="Contact-Info" transform="translate(0.000000, -141.000000)" fill="#3A62AA">
            <g id="Shape">
                <path d="M19.7,150.3 L10.7,141.3 C10.3,140.9 9.7,140.9 9.3,141.3 L0.3,150.3 C-0.1,150.7 -0.1,151.3 0.3,151.7 L9.3,160.7 L9.3,160.7 C9.7,161.1 10.3,161.1 10.7,160.7 L19.7,151.7 C20.1,151.3 20.1,150.7 19.7,150.3 L19.7,150.3 Z M12,153.5 L12,151 L8,151 L8,154 L6,154 L6,150 C6,149.4 6.4,149 7,149 L12,149 L12,146.5 L15.5,150 L12,153.5 L12,153.5 Z"></path>
            </g>
        </g>
    </g>
</svg>
