<?xml version="1.0" encoding="UTF-8"?>
<svg width="24px" height="16px" viewBox="0 0 24 16" version="1.1" xmlns="http://www.w3.org/2000/svg" xmlns:xlink="http://www.w3.org/1999/xlink">
    <!-- Generator: Sketch 44.1 (41455) - http://www.bohemiancoding.com/sketch -->
    <title>Shape</title>
    <desc>Created with Sketch.</desc>
    <defs></defs>
    <g id="Page-1" stroke="none" stroke-width="1" fill="none" fill-rule="evenodd">
        <g id="Landing-Page-3-Copy" transform="translate(-1082.000000, -1544.000000)" fill="#FFFFFF">
            <path d="M1102,1558 C1103.1,1558 1104,1557.1 1104,1556 L1104,1546 C1104,1544.9 1103.1,1544 1102,1544 L1086,1544 C1084.9,1544 1084,1544.9 1084,1546 L1084,1556 C1084,1557.1 1084.9,1558 1086,1558 L1082,1558 L1082,1560 L1106,1560 L1106,1558 L1102,1558 L1102,1558 Z M1086,1546 L1102,1546 L1102,1556 L1086,1556 L1086,1546 L1086,1546 Z" id="Shape"></path>
        </g>
    </g>
</svg>