<svg xmlns="http://www.w3.org/2000/svg" width="16" height="20" viewBox="0 0 16 20">
    <path fill="#EF0030" fill-rule="evenodd" d="M3 0v2H0v18h6v-2h4v2h6V2h-3V0H3zm6 7h2V5H9v2zM5 7h2V5H5v2zm4 4h2V9H9v2zm-4 0h2V9H5v2zm4 4h2v-2H9v2zm-4 0h2v-2H5v2z"/>
</svg>
