<?xml version="1.0" encoding="UTF-8"?>
<svg width="78px" height="58px" viewBox="0 0 78 58" version="1.1" xmlns="http://www.w3.org/2000/svg" xmlns:xlink="http://www.w3.org/1999/xlink">
    <!-- Generator: Sketch 41.2 (35397) - http://www.bohemiancoding.com/sketch -->
    <title>Baker Logo</title>
    <desc>Created with Sketch.</desc>
    <defs></defs>
    <g id="Page-1" stroke="none" stroke-width="1" fill="none" fill-rule="evenodd">
        <g id="Affiliated-Institution-Landing" transform="translate(-252.000000, -30.000000)" fill="#FFFFFF">
            <g id="//-GLOBAL-NAV-V3">
                <g id="Main-NAV">
                    <path d="M308.403803,81.3364308 C308.779782,81.3364308 309.149892,81.3250152 309.149892,80.901602 C309.149892,80.5539465 308.860571,80.4729999 308.559857,80.4729999 L307.998823,80.4729999 L307.998823,81.3364308 L308.403803,81.3364308 Z M307.998823,82.7042215 L307.691894,82.7042215 L307.691894,80.2121718 L308.646515,80.2121718 C309.20755,80.2121718 309.456476,80.4553577 309.456476,80.901602 C309.456476,81.3423115 309.173024,81.5332626 308.83157,81.5972588 L309.572136,82.7042215 L309.213419,82.7042215 L308.513593,81.5972588 L307.998823,81.5972588 L307.998823,82.7042215 Z M306.656483,81.4581967 C306.656483,82.4897475 307.42605,83.3068243 308.472853,83.3068243 C309.508264,83.3068243 310.289569,82.4897475 310.289569,81.4581967 C310.289569,80.4262999 309.508264,79.6092231 308.472853,79.6092231 C307.42605,79.6092231 306.656483,80.4262999 306.656483,81.4581967 L306.656483,81.4581967 Z M310.625154,81.4581967 C310.625154,82.6696289 309.693319,83.6140064 308.472853,83.6140064 C307.252733,83.6140064 306.321244,82.6696289 306.321244,81.4581967 C306.321244,80.2471103 307.252733,79.302041 308.472853,79.302041 C309.693319,79.302041 310.625154,80.2471103 310.625154,81.4581967 L310.625154,81.4581967 Z M300.38153,78.9107989 C295.903958,82.6402252 290.154823,84.8866675 283.890573,84.8866675 C275.690495,84.8866675 268.375988,81.0344375 263.639477,75.0464614 C262.907198,75.5542805 261.957755,76.0797419 260.824293,76.5135329 C266.1101,83.4912027 274.473482,88 283.890573,88 C291.862439,88 299.080621,84.7700905 304.314985,79.5462646 C302.452006,79.474658 301.185622,79.1847721 300.38153,78.9107989 L300.38153,78.9107989 Z M283.889537,30 C268.001045,30 255.109339,42.830389 254.953975,58.7118438 L258.061242,58.7118438 C258.061242,58.6737919 258.061242,58.7118438 258.064695,58.7118438 L270.31078,58.7118438 L273.47674,44.8748106 L262.369986,44.8748106 C266.999814,37.6103682 274.91644,33.1998139 283.889537,33.1998139 C293.51516,33.1998139 301.922044,38.4163754 306.365436,46.258514 L309.89391,46.258514 C305.184674,36.6313981 295.313923,30 283.889537,30 L283.889537,30 Z M319.145625,68.0646404 C319.16496,67.9283456 319.184639,67.8307946 319.184639,67.7335894 C319.184639,66.9732444 318.717858,66.3692579 317.72595,66.3692579 C316.695027,66.3692579 316.014191,66.9732444 315.722453,68.0646404 L319.145625,68.0646404 Z M322.179699,71.3191106 C321.907295,72.0012763 321.18779,74.5151193 316.811723,74.5151193 C313.232841,74.5151193 311.793486,72.5080577 311.793486,70.0523302 C311.793486,65.4338745 315.333354,63.8941586 317.842645,63.8941586 C320.079187,63.8941586 322.782509,65.1415672 322.782509,68.3178581 C322.782509,68.8637291 322.76352,69.4483437 322.588132,70.072048 L315.391702,70.072048 C315.391702,71.1437262 315.7808,72.040366 316.967431,72.040366 C317.803631,72.040366 318.270412,71.6892512 318.484123,71.3191106 L322.179699,71.3191106 Z M303.798833,69.5652667 C303.798833,70.4812783 304.24628,71.1824699 305.121493,71.1824699 C306.929923,71.1824699 307.260674,68.9612802 307.260674,68.2791144 C307.260674,67.6554102 307.202672,66.7003089 305.821664,66.7003089 C304.323961,66.7003089 303.798833,68.3763196 303.798833,69.5652667 L303.798833,69.5652667 Z M310.100716,72.5080577 C309.555909,75.3532976 308.953099,77.7889614 304.109905,77.7889614 C302.943299,77.7889614 299.286391,77.6530125 299.442099,74.4175683 L303.254371,74.4175683 C303.254371,74.7880548 303.351387,75.0803621 303.565443,75.2944902 C303.740486,75.4311309 304.051903,75.5089643 304.459991,75.5089643 C305.646621,75.5089643 305.899346,74.5932986 306.113402,73.7163766 L306.346792,72.6443525 L306.307779,72.6443525 C305.704969,73.3265182 304.82941,73.6579151 303.895849,73.6579151 C301.484264,73.6579151 299.947894,72.1181993 299.947894,69.7212792 C299.947894,66.8369496 301.659307,63.8941586 304.810421,63.8941586 C306.055054,63.8941586 307.202672,64.2642993 307.805482,65.4532463 L307.844495,65.4532463 L308.097219,64.1477223 L311.81213,64.1477223 L310.100716,72.5080577 Z M295.80418,68.0646404 C295.823514,67.9283456 295.842848,67.8307946 295.842848,67.7335894 C295.842848,66.9732444 295.376413,66.3692579 294.384504,66.3692579 C293.353237,66.3692579 292.672745,66.9732444 292.381008,68.0646404 L295.80418,68.0646404 Z M298.838254,71.3191106 C298.56585,72.0012763 297.846345,74.5151193 293.469932,74.5151193 C289.891051,74.5151193 288.451696,72.5080577 288.451696,70.0523302 C288.451696,65.4338745 291.991909,63.8941586 294.500854,63.8941586 C296.737741,63.8941586 299.441064,65.1415672 299.441064,68.3178581 C299.441064,68.8637291 299.42173,69.4483437 299.246687,70.072048 L292.050256,70.072048 C292.050256,71.1437262 292.439355,72.040366 293.625641,72.040366 C294.461841,72.040366 294.928967,71.6892512 295.142678,71.3191106 L298.838254,71.3191106 Z M285.339595,60.3473811 L289.190535,60.3473811 L286.311824,74.2619016 L282.460885,74.2619016 L285.339595,60.3473811 Z M279.796231,60.3473811 L283.64717,60.3473811 L280.76846,74.2619016 L276.91752,74.2619016 L279.796231,60.3473811 Z M270.906339,71.708969 C272.423721,71.708969 272.968184,69.4677156 272.968184,68.5907936 C272.968184,67.3631028 272.656766,66.7003089 271.62619,66.7003089 C270.089473,66.7003089 269.545011,69.0391135 269.545011,70.072048 C269.545011,70.9098804 269.81707,71.708969 270.906339,71.708969 L270.906339,71.708969 Z M271.917927,63.8941586 C274.874319,63.8941586 276.819123,65.2581442 276.819123,68.3178581 C276.819123,70.9098804 275.379768,74.5151193 270.731297,74.5151193 C267.949947,74.5151193 265.693726,73.1705056 265.693726,69.7797407 C265.693726,66.5640142 267.794239,63.8941586 271.917927,63.8941586 L271.917927,63.8941586 Z M265.089535,68.980652 C264.85649,70.4034449 263.728207,74.5932986 257.971132,74.5932986 C253.945149,74.5932986 252,71.9819045 252,68.2593967 C252,63.7578638 254.800683,60.0159842 259.527182,60.0159842 C262.658617,60.0159842 265.362284,61.3609438 265.4593,65.5314256 L261.413638,65.5314256 C261.471986,64.2058378 260.830163,63.4852743 259.507503,63.4852743 C257.134586,63.4852743 256.279052,66.2132454 256.279052,68.1815633 C256.279052,69.3314208 256.57079,71.1243544 258.515594,71.1243544 C259.857933,71.1243544 260.596772,70.2280605 260.88851,68.980652 L265.089535,68.980652 Z M322.206284,48.4568726 L325.966077,48.4568726 L325.633254,50.0460558 L325.672613,50.0460558 C326.338258,48.9671132 327.650216,48.2019253 328.62935,48.2019253 C329.275662,48.2019253 329.627818,48.2212971 330,48.3586297 L329.275662,51.7922894 C328.805428,51.6158673 328.276503,51.5373421 327.787281,51.5373421 C326.142501,51.5373421 325.339445,52.2634404 324.869557,54.3822361 L323.988129,58.6395453 L320.111295,58.6395453 L322.206284,48.4568726 Z M316.508246,52.400773 C316.52758,52.2634404 316.547605,52.1651975 316.547605,52.0673005 C316.547605,51.3017666 316.077717,50.693629 315.078903,50.693629 C314.041076,50.693629 313.355406,51.3017666 313.061942,52.400773 L316.508246,52.400773 Z M319.563035,55.6770365 C319.28856,56.3640452 318.564221,58.8948385 314.158462,58.8948385 C310.555413,58.8948385 309.106391,56.8735939 309.106391,54.4019539 C309.106391,49.7520189 312.670081,48.2019253 315.196289,48.2019253 C317.448022,48.2019253 320.169988,49.457636 320.169988,52.6553744 C320.169988,53.2050505 320.150309,53.7938163 319.97423,54.4213257 L312.729119,54.4213257 C312.729119,55.5002684 313.120635,56.4027889 314.315206,56.4027889 C315.157276,56.4027889 315.627163,56.0499445 315.842601,55.6770365 L319.563035,55.6770365 Z M300.373244,44.6309329 L304.250423,44.6309329 L302.860093,51.4390992 L302.899107,51.4390992 L305.758138,48.4568726 L310.399014,48.4568726 L305.83651,52.5574774 L308.421066,58.6395453 L304.211064,58.6395453 L302.840414,54.9509382 L301.959331,55.7358439 L301.352378,58.6395453 L297.474854,58.6395453 L300.373244,44.6309329 Z M291.052478,56.5992747 C292.364436,56.5992747 292.893016,55.6379469 293.127787,54.1272888 C292.501501,54.4406976 291.776817,54.5195687 291.071812,54.5783761 C290.425501,54.6371834 289.818548,54.9509382 289.818548,55.716472 C289.818548,56.4225067 290.425501,56.5992747 291.052478,56.5992747 L291.052478,56.5992747 Z M287.292685,51.5373421 C287.918972,48.8100629 289.975638,48.2019253 292.481821,48.2019253 C294.322704,48.2019253 297.416161,48.4568726 297.416161,50.9094867 C297.416161,52.49867 296.182922,57.0897976 296.182922,57.7370248 C296.182922,58.090561 296.241614,58.384598 296.339321,58.6395453 L292.540514,58.6395453 C292.442462,58.3257906 292.38377,57.9919721 292.403449,57.6584996 L292.364436,57.6584996 C291.69879,58.4828409 290.347474,58.8948385 289.231275,58.8948385 C287.488443,58.8948385 285.941369,58.1493684 285.941369,56.1872771 C285.941369,53.4990875 287.958331,52.7733351 290.856375,52.5574774 C291.95324,52.49867 293.695727,52.6162848 293.695727,51.3802918 C293.695727,50.6739112 293.088774,50.4974891 292.481821,50.4974891 C291.69879,50.4974891 291.150185,50.7721542 290.934747,51.5373421 L287.292685,51.5373421 Z M278.168023,50.0854914 L280.596179,50.0854914 C281.281504,50.0854914 282.142908,49.8305441 282.142908,48.9671132 C282.142908,48.1234001 281.574968,47.9663498 280.811271,47.9663498 L278.598552,47.9663498 L278.168023,50.0854914 Z M277.090837,55.3044744 L279.851816,55.3044744 C280.615513,55.3044744 281.67302,55.0491811 281.67302,53.8917133 C281.67302,52.8515143 280.889643,52.6948099 280.00856,52.6948099 L277.639097,52.6948099 L277.090837,55.3044744 Z M275.093554,44.6309329 L282.279973,44.6309329 C285.315082,44.6309329 286.450616,45.6905037 286.450616,47.7114024 C286.450616,49.4970716 285.588867,50.6348216 283.885394,51.0862548 L283.86606,51.0862548 L283.86606,51.1249985 C285.178017,51.4197273 285.980728,52.6162848 285.980728,53.9311488 C285.980728,57.3056553 283.278441,58.6395453 280.223998,58.6395453 L272.19551,58.6395453 L275.093554,44.6309329 Z" id="Baker-Logo"></path>
                </g>
            </g>
        </g>
    </g>
</svg>
