<?xml version="1.0" encoding="UTF-8"?>
<svg width="12px" height="21px" viewBox="0 0 12 21" version="1.1" xmlns="http://www.w3.org/2000/svg" xmlns:xlink="http://www.w3.org/1999/xlink">
    <!-- Generator: Sketch 42 (36781) - http://www.bohemiancoding.com/sketch -->
    <title>&gt;</title>
    <desc>Created with Sketch.</desc>
    <defs></defs>
    <g id="Page-1" stroke="none" stroke-width="1" fill="none" fill-rule="evenodd">
        <g id="Events-Landing" transform="translate(-1610.000000, -544.000000)" fill="#e83928">
            <g id="//-RIGHT-NAV-W/-CALENDAR" transform="translate(1332.000000, 504.000000)">
                <g id="Calendar">
                    <g id="Prev" transform="translate(276.000000, 33.000000)">
                        <path d="M3.6,28 C3.3599988,28 3.1600008,27.9150008 3,27.745 C2.8399992,27.5749992 2.76,27.3750011 2.76,27.145 C2.76,26.9149988 2.8299993,26.7200008 2.97,26.56 L11.91,17.56 L2.97,8.59 C2.8299993,8.4099991 2.76,8.2000012 2.76,7.96 C2.76,7.7199988 2.8299993,7.5100009 2.97,7.33 C3.1300008,7.1699992 3.33499875,7.09 3.585,7.09 C3.83500125,7.09 4.0399992,7.1699992 4.2,7.33 L13.71,16.96 C13.8700008,17.1200008 13.95,17.3099989 13.95,17.53 C13.95,17.7900013 13.8600009,18.0099991 13.68,18.19 L4.2,27.73 C4.0399992,27.9100009 3.8400012,28 3.6,28 Z" id="&gt;"></path>
                    </g>
                </g>
            </g>
        </g>
    </g>
</svg>
