<?xml version="1.0" encoding="UTF-8"?>
<svg width="18px" height="20px" viewBox="0 0 18 20" version="1.1" xmlns="http://www.w3.org/2000/svg" xmlns:xlink="http://www.w3.org/1999/xlink">
    <!-- Generator: Sketch 42 (36781) - http://www.bohemiancoding.com/sketch -->
    <title>Date</title>
    <desc>Created with Sketch.</desc>
    <defs></defs>
    <g id="Mobile" stroke="none" stroke-width="1" fill="none" fill-rule="evenodd">
        <g id="Events-Mobile" transform="translate(-21.000000, -785.000000)" fill="#505258">
            <g id="Group-Copy" transform="translate(0.000000, 465.000000)">
                <g id="//-UPCOMING-EVENTS">
                    <g id="Event-li">
                        <g id="Event" transform="translate(20.000000, 0.000000)">
                            <g id="Group-2" transform="translate(0.000000, 320.000000)">
                                <g id="Date" transform="translate(1.000000, 0.000000)">
                                    <path d="M16,2 L15,2 L15,0 L13,0 L13,2 L5,2 L5,0 L3,0 L3,2 L2,2 C0.9,2 0,2.9 0,4 L0,18 C0,19.1 0.9,20 2,20 L16,20 C17.1,20 18,19.1 18,18 L18,4 C18,2.9 17.1,2 16,2 L16,2 Z M16,18 L2,18 L2,7 L16,7 L16,18 L16,18 Z" id="Shape"></path>
                                    <rect id="Rectangle" x="4" y="9" width="2" height="2"></rect>
                                    <rect id="Rectangle-Copy-4" x="4" y="13" width="2" height="2"></rect>
                                    <rect id="Rectangle-Copy" x="8" y="9" width="2" height="2"></rect>
                                    <rect id="Rectangle-Copy-5" x="8" y="13" width="2" height="2"></rect>
                                    <rect id="Rectangle-Copy-2" x="12" y="9" width="2" height="2"></rect>
                                    <rect id="Rectangle-Copy-6" x="12" y="13" width="2" height="2"></rect>
                                </g>
                            </g>
                        </g>
                    </g>
                </g>
            </g>
        </g>
    </g>
</svg>